{
  "host": "ec2-52-1-95-247.compute-1.amazonaws.com",
  "user": "hzhqrzjhoxhmct",
  "password": "87f3615aabf016facbe68ad13e50f8ee139291af324dc7f13b9a032531e36126",
  "database": "d7tt4qiqrqjl3t",
  "port": "5432"
}
